Data Analysis Exercise – Aylla Ermland Data Analysis Portfolio
…
In the year 2000, infant mortality is a stronger predictor of life expectancy than population size, at least in the year 2000 in Africa.

# Additional Data Exploration – this part was contributed by Talia C. Swanson

library(dslabs)
library(dplyr)
library(ggplot2)

# Upload chosen dataset
data("historic_co2")

# Displaying all points in the historic_co2 dataset
historic_co2

# A tibble: 694 × 3
    year   co2 source   
   <dbl> <dbl> <chr>    
 1  1959  316. Mauna Loa
 2  1960  317. Mauna Loa
 3  1961  318. Mauna Loa
 4  1962  318. Mauna Loa
 5  1963  319. Mauna Loa
 6  1964  320. Mauna Loa
 7  1965  320. Mauna Loa
 8  1966  321. Mauna Loa
 9  1967  322. Mauna Loa
10  1968  323. Mauna Loa
# ℹ 684 more rows
…
